Homework 04
…
##    country             estimate             term          
##  Length:14          Min.   :4.807e-05   Length:14         
##  Class :character   1st Qu.:3.962e-04   Class :character  
##  Mode  :character   Median :4.012e-03   Mode  :character  
##                     Mean   :3.334e-02                     
##                     3rd Qu.:6.235e-02                     
##                     Max.   :1.273e-01

# 14 countries indicate positive relation
lr3 <- lr0 %>% 
  filter(term == 'gdpcap') %>%
  select(country, estimate)
lr3

## # A tibble: 185 x 2
## # Groups:   country [185]
##    country              estimate
##    <chr>                   <dbl>
##  1 Afghanistan         -0.0359  
##  2 Albania             -0.00289 
##  3 Algeria             -0.00401 
##  4 Angola              -0.0218  
##  5 Antigua and Barbuda -0.00158 
##  6 Argentina           -0.00166 
##  7 Armenia             -0.00350 
##  8 Australia           -0.000202
##  9 Austria             -0.000281
## 10 Azerbaijan          -0.00348 
## #  with 175 more rows
…
finish <- full_join(finish_1, finish_2) %>%
  dplyr::ungroup(.) %>%
  filter(square_gdp > origin)
finish

## # A tibble: 155 x 3
##    country               origin square_gdp
##    <chr>                  <dbl>      <dbl>
##  1 Albania              0.947       0.961 
##  2 Algeria              0.915       0.918 
##  3 Angola               0.813       0.816 
##  4 Antigua and Barbuda  0.473       0.799 
##  5 Austria              0.902       0.935 
##  6 Azerbaijan           0.792       0.792 
##  7 Bahamas, The        -0.00297     0.0957
##  8 Bahrain              0.134       0.217 
##  9 Bangladesh           0.821       0.960 
## 10 Belarus              0.929       0.937 
## #  with 145 more rows
…
